…
`group by ใช้จัดกลุ่มข้อมูล`
```
super %>% group_by(State) %>% select(State,Sales) %>% summarise(sum_sales = sum(Sales)) 
```

Result
```
# A tibble: 49 x 2
   State                sum_sales
   <chr>                    <dbl>
 1 Alabama                 19511.
 2 Arizona                 35273.
 3 Arkansas                11678.
 4 California             446306.
 5 Colorado                31842.
 6 Connecticut             13384.
 7 Delaware                27323.
 8 District of Columbia     2865.
 9 Florida                 88437.
10 Georgia                 48219.
# ... with 39 more rows
```
…
